…
``` r
noaa_data = ny_noaa %>%
  mutate_at(vars(date), funs(year, month, day)) %>% # need the lubridate package for this line
  mutate(prcp = prcp/10, tmax = as.numeric(tmax)/10, tmin = as.numeric(tmin)/10) # convert from tenths of mm and tench of degrees to whole units
```

*For snowfall, what are the most commonly observed values? Why?*

``` r
noaa_data %>% 
  count(snow) %>% 
  arrange(desc(n))
```

    ## # A tibble: 282 x 2
    ##     snow       n
    ##    <int>   <int>
    ##  1     0 2008508
    ##  2    NA  381221
    ##  3    25   31022
    ##  4    13   23095
    ##  5    51   18274
    ##  6    76   10173
    ##  7     8    9962
    ##  8     5    9748
    ##  9    38    9197
    ## 10     3    8790
    ## # ... with 272 more rows
…
